<?xml version="1.0" standalone="no"?>
<!DOCTYPE svg PUBLIC "-//W3C//DTD SVG 1.1//EN" "http://www.w3.org/Graphics/SVG/1.1/DTD/svg11.dtd" >
<svg xmlns="http://www.w3.org/2000/svg">
<metadata>Generated by IcoMoon</metadata>
<defs>
<font id="icomoon" horiz-adv-x="1024">
<font-face units-per-em="1024" ascent="960" descent="-64" />
<missing-glyph horiz-adv-x="1024" />
<glyph unicode="&#x20;" horiz-adv-x="512" d="" />
<glyph unicode="&#xe900;" glyph-name="legal-services" d="M968.802 574.56l-119.52 206.88c-1.821 2.966-4.357 5.43-7.376 7.163s-6.424 2.68-9.904 2.757h-640c-3.485-0.061-6.896-1.003-9.917-2.738s-5.555-4.205-7.363-7.182l-119.521-206.88c-5.948-10.334-9.074-22.053-9.064-33.976s3.155-23.635 9.119-33.96c5.965-10.325 14.54-18.901 24.864-24.866s22.036-9.109 33.96-9.118h155.841c11.923 0.010 23.635 3.154 33.96 9.118s18.899 14.541 24.864 24.866c5.965 10.325 9.11 22.037 9.12 33.96s-3.117 23.642-9.064 33.976l-102.080 177.44h264.32v-512h-15.040c-41.95 0.101-83.41-9.035-121.432-26.762-38.021-17.725-71.675-43.603-98.568-75.798-2.47-2.962-4.032-6.574-4.496-10.403s0.189-7.71 1.878-11.176c1.691-3.466 4.349-6.37 7.651-8.36 3.302-1.992 7.11-2.986 10.966-2.861h480c3.792 0.024 7.499 1.118 10.698 3.157s5.757 4.936 7.382 8.363c1.634 3.434 2.246 7.266 1.763 11.038s-2.038 7.328-4.483 10.242c-27.054 32.336-60.918 58.298-99.171 76.026-38.253 17.73-79.949 26.79-122.109 26.534h-15.040v512h266.24l-102.080-177.44c-5.949-10.334-9.075-22.053-9.066-33.976 0.011-11.923 3.155-23.635 9.12-33.96s14.539-18.901 24.864-24.866c10.325-5.965 22.037-9.109 33.962-9.118h155.84c11.923 0.010 23.635 3.154 33.96 9.118s18.899 14.541 24.864 24.866c5.965 10.325 9.11 22.037 9.12 33.96s-3.117 23.642-9.064 33.976v0zM702.562 144h-382.56c44.136 36.272 99.51 56.069 156.64 56h70.080c56.862-0.064 111.942-19.856 155.84-56zM294.082 526.56c-2.422-4.262-5.939-7.8-10.187-10.246-4.248-2.448-9.072-3.717-13.973-3.674h-155.841c-4.896 0.022-9.7 1.33-13.933 3.789-4.233 2.461-7.747 5.987-10.192 10.229s-3.734 9.050-3.74 13.946c-0.006 4.896 1.271 9.709 3.705 13.957l102.081 176 102.080-176.8c2.355-4.146 3.595-8.832 3.595-13.6 0-4.77-1.24-9.456-3.595-13.6v0zM934.082 526.56c-2.422-4.262-5.939-7.8-10.187-10.246-4.248-2.448-9.072-3.717-13.973-3.674h-155.84c-4.896 0.022-9.701 1.33-13.933 3.789-4.234 2.461-7.747 5.987-10.192 10.229s-3.734 9.050-3.741 13.946c-0.006 4.896 1.27 9.709 3.706 13.957l102.080 176 102.080-176.8c2.355-4.146 3.595-8.832 3.595-13.6 0-4.77-1.24-9.456-3.595-13.6v0z" />
<glyph unicode="&#xe901;" glyph-name="tax" d="M944 528h-208.592c-39.232 82.688-108.48 143.824-191.408 172.928v8.336c30.16 10.992 64.176 3.92 87.28-19.168l13.408-13.408c3.056-3.056 7.152-4.688 11.312-4.688 2.064 0 4.144 0.4 6.128 1.216 5.984 2.48 9.872 8.32 9.872 14.784v32h48c6.464 0 12.32 3.904 14.784 9.872 2.48 5.984 1.104 12.864-3.472 17.44l-35.712 35.712c-21.264 21.264-49.536 32.976-79.6 32.976s-58.336-11.712-79.6-32.976l-10.112-10.112c-2.704 2.224-5.632 4.16-8.784 5.76l57.344 143.376c1.968 4.928 1.36 10.512-1.616 14.912-2.96 4.4-7.92 7.040-13.232 7.040h-64c-5.344 0-10.336-2.672-13.312-7.12l-18.688-28.032-18.688 28.032c-2.976 4.448-7.968 7.12-13.312 7.12h-112c-5.056 0-9.808-2.384-12.848-6.448-3.008-4.064-3.936-9.312-2.48-14.144l43.2-143.984c-3.696-1.712-7.056-3.952-10.16-6.496l-10.112 10.112c-21.264 21.248-49.536 32.96-79.6 32.96s-58.336-11.712-79.6-32.976l-35.712-35.712c-4.576-4.576-5.952-11.456-3.472-17.44 2.464-5.968 8.32-9.872 14.784-9.872h48v-32c0-6.464 3.888-12.304 9.872-14.784 1.984-0.816 4.064-1.216 6.128-1.216 4.16 0 8.256 1.632 11.312 4.688l13.408 13.408c23.104 23.104 57.12 30.16 87.28 19.168v-9.328c-129.824-47.872-224-176.272-224-323.6v-184.688c-44.8-4.048-80-41.808-80-87.648 0-48.528 39.488-88 88-88h424c0-35.296 28.704-64 64-64h352c35.296 0 64 28.704 64 64v448c0 35.296-28.704 64-64 64zM976 464v-416h-416v416c0 17.648 14.352 32 32 32h352c17.648 0 32-14.352 32-32zM528 220.608c-28.592-18.656-61.568-28.608-96-28.608-97.040 0-176 78.96-176 176s78.96 176 176 176c40.896 0 79.664-13.888 110.944-39.392-9.184-11.088-14.944-25.12-14.944-40.608v-243.392zM616 784c21.52 0 41.744-8.384 56.976-23.6l8.4-8.4h-25.376c-8.848 0-16-7.168-16-16v-11.408c-19.888 14.416-43.6 21.92-67.584 21.92-9.744 0-19.504-1.392-29.088-3.904-0.080 0.624-0.080 1.28-0.192 1.904l15.888 15.888c15.232 15.216 35.456 23.6 56.976 23.6zM423.44 912l27.248-40.88c5.936-8.912 20.688-8.912 26.624 0l27.248 40.88h31.808l-51.216-128h-105.264l-38.4 128h81.952zM224 724.592v11.408c0 8.832-7.152 16-16 16h-25.376l8.4 8.4c15.232 15.216 35.456 23.6 56.976 23.6s41.744-8.384 56.976-23.6l15.888-15.888c-0.112-0.608-0.096-1.248-0.192-1.872-33.216 8.688-68.688 2.24-96.672-18.048zM352 736c0 8.816 7.168 16 16 16h128c8.832 0 16-7.184 16-16v-25.792c-29.648 7.2-60.576 10.672-92.24 9.568-23.248-0.832-45.888-4.272-67.76-9.856v26.080zM104 48c-30.88 0-56 25.12-56 56s25.12 56 56 56h8c8.848 0 16 7.168 16 16v200.336c0 166 131.392 305.728 292.896 311.472 117.248 4.256 224.192-57.84 278.848-159.792h-107.744c-7.92 0-15.44-1.632-22.448-4.272-38.048 33.664-86.32 52.256-137.552 52.256-114.688 0-208-93.312-208-208s93.312-208 208-208c33.84 0 66.512 8.112 96 23.504v-135.504h-424zM944-16h-352c-17.648 0-32 14.352-32 32h416c0-17.648-14.352-32-32-32zM592 352c0-8.832 7.152-16 16-16h320c8.848 0 16 7.168 16 16v96c0 8.832-7.152 16-16 16h-320c-8.848 0-16-7.168-16-16v-96zM624 432h288v-64h-288v64zM672 304h-64c-8.848 0-16-7.168-16-16v-64c0-8.832 7.152-16 16-16h64c8.848 0 16 7.168 16 16v64c0 8.832-7.152 16-16 16zM656 240h-32v32h32v-32zM800 304h-64c-8.848 0-16-7.168-16-16v-64c0-8.832 7.152-16 16-16h64c8.848 0 16 7.168 16 16v64c0 8.832-7.152 16-16 16zM784 240h-32v32h32v-32zM928 304h-64c-8.848 0-16-7.168-16-16v-192c0-8.832 7.152-16 16-16h64c8.848 0 16 7.168 16 16v192c0 8.832-7.152 16-16 16zM912 112h-32v160h32v-160zM672 176h-64c-8.848 0-16-7.168-16-16v-64c0-8.832 7.152-16 16-16h64c8.848 0 16 7.168 16 16v64c0 8.832-7.152 16-16 16zM656 112h-32v32h32v-32zM800 176h-64c-8.848 0-16-7.168-16-16v-64c0-8.832 7.152-16 16-16h64c8.848 0 16 7.168 16 16v64c0 8.832-7.152 16-16 16zM784 112h-32v32h32v-32zM432 448c17.648 0 32-14.352 32-32h32c0 29.728-20.464 54.576-48 61.728v34.272h-32v-34.272c-27.536-7.152-48-32-48-61.728 0-35.296 28.704-64 64-64 17.648 0 32-14.352 32-32s-14.352-32-32-32-32 14.352-32 32h-32c0-29.728 20.464-54.576 48-61.728v-34.272h32v34.272c27.536 7.152 48 32 48 61.728 0 35.296-28.704 64-64 64-17.648 0-32 14.352-32 32s14.352 32 32 32z" />
<glyph unicode="&#xe902;" glyph-name="business-relocation" d="M139.665 864c-41.218 0-75.083-35.082-75.083-77.778v-70.576c-0.775-3.665-0.775-7.474 0-11.151v-437.562l1.076-3.858c16.446-55.008 37.801-109.678 56.288-164.377l21.047-62.871 25.55 60.945c22.36 53.431 46.156 115.825 65.49 163.972l1.86 5.068v520.409c0 42.696-33.866 77.78-75.083 77.78zM305.102 854.47v-821.38h19.97v-1.089h260.784v1.089h226.206c197.938 205.045-50-54.003 147.938 151.043v670.341zM139.665 811.879h21.145c14.316 0 25.158-10.825 25.158-25.656v-50.195h-71.070v50.195c0 14.835 10.45 25.656 24.767 25.656zM355.419 802.76h554.264v-537.345h-172.779v-180.501h-153.299c-4.542 30.557-16.223 59.666-33.577 83.558-8.655 11.913-19.316 22.034-30.836 30.825 15.634 17.013 25.256 40.109 25.256 65.305 0 16.977-4.604 32.88-12.237 46.749h324.12c33.38 0.121 33.38 51.952 0 52.121h-448.052c-19.818-0.062-31.786-22.736-21.145-40.055-12.485-16.23-20.264-36.602-20.264-58.815 0-25.114 9.612-48.105 25.158-65.102-11.664-8.817-22.331-19.050-31.032-31.028-2.069-2.842-3.668-6.144-5.58-9.119zM741.505 736.542c-0.947 0.022-1.895-0.012-2.839-0.104h-212.719c-0.717 0.033-1.436 0.033-2.154 0-30.664-3.882-28.719-50.584 2.154-51.717h212.719c34.303-3.084 37.258 50.865 2.839 51.819zM114.898 683.913h71.070v-407.751c-11.742-29.333-25.557-63.195-38.863-96.636-11.322 32.052-22.916 64.712-32.207 95.422zM408.28 633.717c-33.88 0.363-33.88-52.473 0-52.122h448.052c33.88-0.363 33.88 52.472 0 52.122zM408.28 525.618c-33.38-0.121-33.38-51.951 0-52.121h448.052c33.38 0.121 33.38 51.953 0 52.121zM859.171 444.495c-0.947 0.022-1.895-0.012-2.839-0.104h-448.052c-0.717 0.031-1.436 0.031-2.154 0-30.664-3.882-28.719-50.585 2.154-51.717h448.052c34.303-3.084 37.258 50.862 2.839 51.819zM455.66 306.381c21.248 0 38.472-17.88 38.472-41.779 0-23.478-16.672-41.343-37.395-41.982-0.376 0.005-0.7 0.242-1.076 0.242s-0.701-0.242-1.078-0.242c-20.736 0.605-37.786 18.499-37.786 41.982 0 23.902 17.615 41.779 38.863 41.779zM787.22 213.698h121.305c-121.305-124.588 0 0-121.305-124.588zM411.511 149.102l43.611-41.424 44.981 41.222c3.433-3.532 6.833-7.22 9.985-11.562 10.292-14.17 12.76-33.861 16.74-52.426h-142.629c3.992 18.582 6.832 38.248 17.131 52.426 3.222 4.439 6.667 8.164 10.181 11.768z" />
<glyph unicode="&#xe903;" glyph-name="handshake" d="M85.333 334.222c37.348 0 37.348 56.889 0 56.889s-37.348-56.889 0-56.889zM740.011 359.993c-35.1 45.767-69.348 92.444-109.34 134.229l-55.552-62.236c-48.896-55.552-136.448-54.215-184.007 2.674-33.792 40.875-33.792 99.556 0.882 140.004l78.677 91.563c-27.563 14.222-60.9 9.33-90.652 9.33-26.226 0-51.57-10.667-70.229-29.326l-70.229-70.229h-68.892v-241.778c19.57 0 37.319 2.674 52.878-12.459l132.011-129.764c27.108-26.226 62.208-49.323 100.892-49.323 19.996 0 41.33 6.656 55.552 20.878 33.337-11.548 71.993 7.111 82.233 41.33 21.333-1.792 40.875 4.892 56.434 19.57 10.212 9.33 23.552 27.989 22.215 42.667 4.011-4.011 13.767-4.437 19.115-4.437 52.878 0 80.441 55.552 47.986 97.337zM810.667 334.222h42.667v227.556h-41.33l-69.774 79.986c-18.66 21.333-46.677 33.792-75.122 33.792h-74.212c-24.889 0-48.896-11.122-64.882-29.781l-92.9-108.004c-16.441-19.57-16.441-47.104-0.455-66.674 25.344-30.208 71.993-30.663 98.219-1.337l85.788 96.882c20.452 22.67 57.771 1.337 48.441-27.563 16.896-19.57 35.1-38.656 51.57-58.226 22.215-27.563 43.548-56.434 65.337-84.452 13.767-17.778 24.007-39.111 26.681-62.236zM938.667 334.222c37.348 0 37.348 56.889 0 56.889s-37.348-56.889 0-56.889zM1024 590.222v-284.444c0-15.559-12.885-28.444-28.444-28.444h-192.882c-15.986-38.656-51.115-64.455-91.989-70.229-19.115-27.989-48.441-49.323-81.323-56.434-24.434-31.118-64-49.778-103.566-47.104-73.33-41.33-155.989-5.319-210.66 48.441l-127.545 125.326h-159.118c-15.559 0-28.444 12.885-28.444 28.444v298.667c0 15.559 12.885 28.444 28.444 28.444h187.108c51.57 51.57 87.097 99.556 164.437 99.556h51.996c28.9 0 56.889-8.903 80.441-24.889 23.552 15.986 51.57 24.889 80.441 24.889h74.212c84.452 0 119.552-55.097 170.667-113.778h157.781c15.559 0 28.444-12.885 28.444-28.444z" />
<glyph unicode="&#xe904;" glyph-name="email" d="M512 422.4l441.6 294.4c-19.2 67.2-80 115.2-153.6 115.2h-576c-73.6 0-134.4-48-153.6-115.2l441.6-294.4zM531.2 358.4c-6.4-3.2-12.8-6.4-19.2-6.4s-12.8 3.2-19.2 6.4l-428.8 284.8v-419.2c0-89.6 70.4-160 160-160h576c89.6 0 160 70.4 160 160v419.2l-428.8-284.8z" />
<glyph unicode="&#xe905;" glyph-name="phone" d="M923.307 262.542l-144.498 16.498c-34.702 3.982-68.836-7.964-93.298-32.427l-104.676-104.676c-160.996 81.92-292.978 213.333-374.898 374.898l105.244 105.244c24.462 24.462 36.409 58.596 32.427 93.298l-16.498 143.36c-6.827 57.458-55.182 100.693-113.209 100.693h-98.418c-64.284 0-117.76-53.476-113.778-117.76 30.151-485.831 418.702-873.813 903.964-903.964 64.284-3.982 117.76 49.493 117.76 113.778v98.418c0.569 57.458-42.667 105.813-100.124 112.64z" />
<glyph unicode="&#xe906;" glyph-name="home" d="M512.001 690.953l-365.205-301.073c0-0.425-0.107-1.050-0.32-1.902-0.209-0.845-0.32-1.459-0.32-1.895v-304.868c0-11.008 4.024-20.547 12.071-28.58 8.044-8.038 17.57-12.082 28.58-12.082h243.888v243.902h162.615v-243.911h243.886c11.008 0 20.547 4.036 28.58 12.091 8.047 8.024 12.084 17.57 12.084 28.58v304.868c0 1.691-0.231 2.968-0.641 3.797l-365.219 301.073zM1016.937 458.479l-139.090 115.597v259.143c0 5.924-1.904 10.796-5.726 14.609-3.791 3.809-8.663 5.713-14.6 5.713h-121.946c-5.931 0-10.801-1.904-14.616-5.713-3.806-3.813-5.708-8.687-5.708-14.609v-123.853l-154.974 129.575c-13.535 11.010-29.628 16.514-48.262 16.514-18.631 0-34.722-5.504-48.27-16.514l-456.687-380.462c-4.234-3.381-6.554-7.933-6.985-13.65-0.429-5.713 1.050-10.703 4.443-14.934l39.379-47.002c3.393-3.809 7.833-6.138 13.339-6.99 5.083-0.427 10.167 1.059 15.25 4.445l439.52 366.493 439.524-366.491c3.395-2.954 7.833-4.429 13.339-4.429h1.909c5.497 0.836 9.929 3.181 13.339 6.981l39.383 46.996c3.386 4.24 4.87 9.221 4.429 14.941-0.434 5.702-2.763 10.253-6.988 13.642z" />
<glyph unicode="&#xe907;" glyph-name="facebook2" horiz-adv-x="512" d="M349.25-64v460.8h139.899l22.851 204.8h-162.75v99.738c0 52.736 1.347 105.062 75.039 105.062h74.64v146.432c0 2.202-64.112 7.168-128.973 7.168-135.459 0-220.277-84.838-220.277-240.64v-117.76h-149.678v-204.8h149.678v-460.8h199.571z" />
<glyph unicode="&#xe908;" glyph-name="linkedin1" d="M1024-64h-204.8v358.349c0 98.304-43.366 153.139-121.139 153.139-84.634 0-134.861-57.139-134.861-153.139v-358.349h-204.8v665.6h204.8v-74.854c0 0 64.256 112.742 209.050 112.742 144.845 0 251.75-88.371 251.75-271.258v-432.23zM125.030 708.045c-69.069 0-125.030 56.422-125.030 126.003 0 69.53 55.962 125.952 125.030 125.952 69.018 0 124.979-56.422 124.979-125.952 0.051-69.581-55.962-126.003-124.979-126.003v0zM0-64h256v665.6h-256v-665.6z" />
<glyph unicode="&#xe909;" glyph-name="portfolio" d="M928 0h-832c-17.673 0-32 14.327-32 32v0 576c0 17.673 14.327 32 32 32v0h832c17.673 0 32-14.327 32-32v0-576c0-17.673-14.327-32-32-32v0zM128 64h768v512h-768zM704 576h-384c-17.673 0-32 14.327-32 32v0 47.36c0.182 97.482 79.158 176.458 176.623 176.64h96.017c96.932-0.904 175.183-79.605 175.36-176.623v-47.377c0-17.673-14.327-32-32-32v0zM352 640h320v15.36c-0.181 62.136-50.504 112.459-112.623 112.64h-96.017c-61.586-0.9-111.186-50.949-111.36-112.623v-0.017zM512 256c-4.405 0.055-8.576 0.991-12.367 2.64l0.207-0.080c-179.84 74.56-379.84 153.92-405.76 157.44l1.92 64c32 0 240.96-84.48 416-157.44l404.16 155.2 23.040-59.52-416-160c-3.309-1.408-7.157-2.231-11.197-2.24h-0.003z" />
<glyph unicode="&#xe90a;" glyph-name="linkedin" d="M512 960c-282.769 0-512-229.231-512-512s229.231-512 512-512c282.769 0 512 229.231 512 512s-229.231 512-512 512zM245.794 535.94h116.030v-348.625h-116.030v348.625zM369.468 643.782c-0.753 34.182-25.197 60.218-64.892 60.218-39.693 0-65.643-26.035-65.643-60.218 0-33.474 25.184-60.258 64.137-60.258h0.742c40.459 0 65.655 26.784 65.655 60.258zM646.679 544.126c76.354 0 133.596-49.839 133.596-156.919l-0.004-199.891h-116.026v186.515c0 46.848-16.791 78.816-58.795 78.816-32.055 0-51.149-21.551-59.535-42.368-3.068-7.458-3.821-17.852-3.821-28.271v-194.701h-116.045c0 0 1.53 315.91 0 348.623h116.045v-49.378c15.398 23.738 42.98 57.574 104.585 57.574z" />
<glyph unicode="&#xe90b;" glyph-name="facebook" d="M512 960c-282.769 0-512-229.231-512-512s229.231-512 512-512c282.769 0 512 229.231 512 512s-229.231 512-512 512zM565.367 425.51v-278.556h-115.253v278.545h-57.581v95.991h57.581v57.632c0 78.31 32.512 124.877 124.887 124.877h76.905v-96.002h-48.070c-35.959 0-38.338-13.414-38.338-38.451l-0.13-48.045h87.083l-10.191-95.991h-76.892z" />
<glyph unicode="&#xe90c;" glyph-name="check" horiz-adv-x="1417" d="M633.604 46.802l783.668 804.645-113.327 108.553-779.963-801.069-411.945 420.756-112.037-109.733 414.525-423.447 111.134-110.507 107.945 110.802z" />
<glyph unicode="&#xe90d;" glyph-name="quote" d="M354.459 487.381h-137.848c-16.411 0-30.363 5.742-41.852 17.23-11.482 11.488-17.23 25.436-17.23 41.852v19.683c0 43.49 15.388 80.615 46.161 111.388 30.771 30.762 67.902 46.15 111.388 46.15h39.382c10.665 0 19.892 3.899 27.691 11.691 7.794 7.796 11.691 17.024 11.691 27.691v78.776c0 10.665-3.899 19.901-11.691 27.697-7.796 7.785-17.024 11.691-27.691 11.691h-39.382c-42.671 0-83.38-8.316-122.154-24.923-38.77-16.618-72.304-39.082-100.615-67.394-28.309-28.299-50.767-61.835-67.383-100.609-16.616-38.77-24.925-79.49-24.925-122.156v-433.22c0-32.838 11.482-60.72 34.457-83.704 22.977-22.97 50.881-34.454 83.699-34.454h236.318c32.816 0 60.712 11.484 83.691 34.454 22.97 22.983 34.459 50.866 34.459 83.704v236.297c0 32.831-11.488 60.714-34.474 83.699-22.968 22.968-50.874 34.457-83.691 34.457zM989.561 452.924c-22.968 22.968-50.866 34.457-83.691 34.457h-137.846c-16.403 0-30.368 5.742-41.837 17.23-11.493 11.488-17.23 25.436-17.23 41.852v19.683c0 43.49 15.388 80.615 46.145 111.388 30.76 30.762 67.889 46.15 111.397 46.15h39.373c10.667 0 19.901 3.899 27.693 11.691 7.788 7.796 11.7 17.024 11.7 27.691v78.776c0 10.665-3.91 19.901-11.7 27.697-7.79 7.785-17.024 11.691-27.693 11.691h-39.373c-42.695 0-83.395-8.316-122.18-24.923-38.763-16.618-72.286-39.082-100.598-67.394-28.311-28.299-50.78-61.835-67.389-100.609-16.612-38.77-24.932-79.49-24.932-122.156v-433.22c0-32.838 11.493-60.72 34.461-83.704 22.97-22.97 50.868-34.454 83.691-34.454h236.305c32.825 0 60.72 11.484 83.689 34.454 22.985 22.983 34.454 50.866 34.454 83.704v236.297c0.002 32.834-11.469 60.714-34.439 83.699z" />
<glyph unicode="&#xe90e;" glyph-name="social" d="M918.43 129.518c-0.17 0.001-0.372 0.002-0.573 0.002-17.93 0-34.583-5.462-48.388-14.813l0.304 0.194-182.922 183.859c14.764 17.177 27.211 36.937 36.497 58.383l0.576 1.494q2.556 6.027 4.754 12.23c6.373 17.277 10.829 37.302 12.486 58.115l0.051 0.797h83.954c8.734-40.653 44.369-70.683 87.017-70.683 49.101 0 88.904 39.804 88.904 88.904s-39.804 88.904-88.904 88.904c-42.648 0-78.283-30.030-86.912-70.098l-0.105-0.585h-83.954c-1.71 21.608-6.163 41.63-13.036 60.488l0.505-1.585q-2.212 6.207-4.761 12.242c-9.855 22.933-22.294 42.685-37.306 60.164l0.258-0.307 183.855 182.919c13.724-9.11 30.579-14.535 48.702-14.535 49.076 0 88.86 39.784 88.86 88.86 0 24.54-9.948 46.757-26.030 62.837v0c-16.090 16.094-38.319 26.048-62.874 26.048-49.101 0-88.905-39.804-88.905-88.905 0-0.006 0-0.012 0-0.018v0.001c-0.001-0.17-0.002-0.372-0.002-0.574 0-17.929 5.462-34.583 14.813-48.387l-0.194 0.304-183.884-182.947c-35.344 30.405-80.518 50.296-130.172 54.372l-0.823 0.054v83.917c40.653 8.735 70.683 44.369 70.683 87.017 0 49.101-39.804 88.905-88.905 88.905s-88.905-39.804-88.905-88.905c0-42.648 30.030-78.283 70.098-86.912l0.585-0.106v-83.921c-50.463-4.142-95.623-24.025-131.269-54.665l0.304 0.255-182.955 183.891c9.11 13.724 14.536 30.58 14.536 48.703 0 49.076-39.784 88.86-88.86 88.86-24.54 0-46.757-9.948-62.837-26.031v0c-16.084-16.094-26.031-38.323-26.031-62.874s9.947-46.78 26.031-62.875l-0.001 0.001c15.97-16.079 38.090-26.032 62.535-26.032 0.119 0 0.238 0 0.357 0.001h-0.018c0.17-0.001 0.371-0.002 0.572-0.002 17.93 0 34.584 5.462 48.39 14.813l-0.304-0.194 182.92-183.858c-14.765-17.176-27.212-36.935-36.496-58.381l-0.576-1.494q-2.556-6.036-4.754-12.236c-6.373-17.276-10.828-37.299-12.486-58.111l-0.051-0.798h-83.953c-8.734 40.653-44.369 70.684-87.018 70.684-49.101 0-88.905-39.804-88.905-88.905s39.804-88.905 88.905-88.905c42.649 0 78.283 30.030 86.912 70.099l0.106 0.585h83.954c1.709-21.611 6.162-41.635 13.036-60.497l-0.505 1.585c1.475-4.138 3.064-8.226 4.774-12.23 9.853-22.931 22.29-42.683 37.299-60.162l-0.258 0.307-183.861-182.925c-13.688 9.056-30.489 14.448-48.55 14.448-49.041 0-88.797-39.756-88.797-88.797s39.756-88.797 88.797-88.797c49.041 0 88.797 39.756 88.797 88.797 0 0.022 0 0.044 0 0.066v-0.003c0.001 0.17 0.002 0.372 0.002 0.573 0 17.93-5.462 34.583-14.813 48.388l0.194-0.304 183.888 182.95c35.341-30.407 80.514-50.298 130.167-54.372l0.822-0.054v-83.921c-40.653-8.735-70.683-44.369-70.683-87.017 0-49.101 39.804-88.905 88.905-88.905s88.905 39.804 88.905 88.905c0 42.648-30.030 78.283-70.098 86.912l-0.585 0.106v83.925c50.463 4.137 95.624 24.019 131.268 54.661l-0.303-0.255 182.956-183.892c-9.056-13.688-14.448-30.489-14.448-48.55 0-49.041 39.756-88.797 88.797-88.797s88.797 39.756 88.797 88.797c0 49.041-39.756 88.797-88.797 88.797-0.022 0-0.044 0-0.066 0h0.003zM882.343 891.673c9.534 9.526 22.701 15.418 37.244 15.418s27.71-5.892 37.244-15.418v0c9.468-9.56 15.318-22.719 15.318-37.244s-5.85-27.683-15.322-37.248l0.004 0.004c-9.532-9.532-22.699-15.427-37.244-15.427-29.089 0-52.671 23.582-52.671 52.671 0 14.545 5.895 27.712 15.427 37.244v0zM142.815 818.343c-9.537-9.545-22.717-15.449-37.276-15.449-29.102 0-52.693 23.592-52.693 52.693s23.592 52.693 52.693 52.693c29.102 0 52.693-23.592 52.693-52.693 0 0 0 0 0 0v0c0-0.015 0-0.033 0-0.050 0-14.527-5.892-27.678-15.417-37.193v0zM141.657 4.326c-9.534-9.526-22.701-15.418-37.244-15.418s-27.71 5.891-37.244 15.418v0c-9.468 9.561-15.318 22.719-15.318 37.244s5.85 27.683 15.322 37.248l-0.004-0.004c9.54 9.585 22.744 15.516 37.333 15.516 29.089 0 52.671-23.582 52.671-52.671 0-14.589-5.931-27.793-15.514-37.331l-0.002-0.002zM955.674 3.168c-9.561-9.468-22.719-15.318-37.244-15.318s-27.683 5.85-37.248 15.322l0.004-0.004c-9.526 9.529-15.418 22.693-15.418 37.232 0 29.085 23.578 52.662 52.662 52.662s52.662-23.578 52.662-52.662c0-14.539-5.892-27.702-15.419-37.232v0z" />
<glyph unicode="&#xe90f;" glyph-name="arrow-right" horiz-adv-x="1536" d="M1517.161 490.357l-449.245 450.925c-11.491 11.030-27.124 17.823-44.343 17.823-35.388 0-64.075-28.687-64.075-64.075 0-17.159 6.745-32.744 17.729-44.245l-0.024 0.025 337.654-338.854h-1250.782c-1.172 0.076-2.541 0.12-3.919 0.12-35.388 0-64.075-28.687-64.075-64.075s28.687-64.075 64.075-64.075c1.379 0 2.748 0.044 4.105 0.129l-0.186-0.009h1255.822l-342.453-338.614c-13.22-11.79-21.505-28.872-21.505-47.889 0-35.388 28.687-64.075 64.075-64.075 18.898 0 35.884 8.181 47.612 21.194l0.051 0.057 449.245 444.925c11.624 11.6 18.816 27.638 18.816 45.356s-7.191 33.756-18.815 45.355l-0.001 0.001z" />
</font></defs></svg>